Cerag Oguztuzun: Lab 03 for 431
…
PART B

Question 6

set.seed(20212022)

chr_sample <- slice_sample(lab03_chr, n = 750)
chr_sample <- chr_sample %>%
    filter(complete.cases(state, county_name, adult_obesity, food_insecurity))
vars_to_keep <- c("state", "county_name", "adult_obesity", "food_insecurity")
chr_sample <- chr_sample[vars_to_keep]
chr_sample

# A tibble: 750 x 4
   state county_name         adult_obesity food_insecurity
   <chr> <chr>                       <dbl>           <dbl>
 1 VA    New Kent County             0.341           0.059
 2 OH    Holmes County               0.268           0.102
 3 FL    Holmes County               0.358           0.186
 4 MT    Powder River County         0.232           0.096
 5 MO    Webster County              0.334           0.134
 6 GA    Glascock County             0.306           0.133
 7 SD    Minnehaha County            0.311           0.095
 8 MO    Callaway County             0.363           0.117
 9 MO    Dent County                 0.25            0.167
10 IA    Shelby County               0.337           0.082
# ... with 740 more rows
…
