Cerag Oguztuzun: Lab 06 for 431
…
Lindner data is read and filtered to include only the patients who were alive at 6 months, and complete cases of the outcome variable cardbill. An id is added to each row to create easier referencing to patients. The resulting tibble has 970 rows, where 70% of the samples (679 samples) are partitioned to create a training set, and the rest of the samples will be treated as a test sample. Number of samples for each set is printed for confirmation.

lindner <- readRDS("data/lab05_lind.Rds")

lindner_alive <- lindner %>%
    filter(sixMonthSurvive == 1) %>%
    mutate(id = row_number()) %>%
    as_tibble()

lindner_alive <- lindner_alive %>%
    filter(complete.cases(cardbill))

lindner_alive

# A tibble: 970 x 12
   lifepres cardbill abcix stent height female diabetic acutemi
      <dbl>    <int> <int> <int>  <int>  <int>    <int>   <int>
 1     11.6     3563     1     0    168      0        0       0
 2     11.6     4694     1     0    188      0        0       0
 3     11.6     7366     1     0    175      0        1       0
 4     11.6     8247     1     0    168      1        0       0
 5     11.6     8319     1     0    178      0        0       0
 6     11.6     8410     1     0    185      0        0       0
 7     11.6     8517     1     0    173      1        0       0
 8     11.6     8763     1     0    152      1        0       0
 9     11.6     8823     1     0    180      0        0       0
10     11.6     8970     1     0    152      1        0       0
# ... with 960 more rows, and 4 more variables: ejecfrac <int>,
#   ves1proc <int>, sixMonthSurvive <lgl>, id <int>
…
